UART_Test_Course_V4/.Xil/Vivado-11852-DESKTOP-SUFRKL5/hw_ila_data_1/zip_work/waveform.vcd
$date
        2025-Jun-25 15:38:15
$end
$version
        Vivado v2023.1 (64-bit)
$end
$timescale
        1ps
$end
$scope module dut $end
$var reg 8 " design_1_i/vio_0_probe_out0_1 [7:0] $end
$var reg 8 * design_1_i/UART_Tx_Rx_0_rxout_1 [7:0] $end
$var reg 1 2 design_1_i/UART_Tx_Rx_0_rxdone $end
$var reg 1 3 design_1_i/UART_Tx_Rx_0_txdone $end
$var reg 1 4 design_1_i/UART_Tx_Rx_0_tx $end
$var reg 1 5 design_1_i/rx_0_1 $end
$var reg 1 6 design_1_i/start_0_1 $end
$var reg 1 7 _TRIGGER $end
$var reg 1 8 _WINDOW $end
$var reg 1 9 _GAP $end
$upscope $end
$enddefinitions $end
#0
$dumpvars
b110110 "
b0 *
02
03
14
05
16
07
18
09
$end
#19654
04
#32768
17
#40488
14
#50903
13
#50904
12
03
#50905
02
04
#50907
14
#50908
04
